{
  "TEMPLATE": "DEBUG",
  "HIDE_CHORD": false,
  "HIDE_FUNCTION": false,
  "DEBUG_MODE": false,
  "json_generated": {
    "templates": []
  },
  "voices_params": {
    "left_hand": {
      "clef": "F",
      "proba_rest": 0.5,
      "proba_note": 0.5,
      "proba_interv": 0.5,
      "proba_chord": 0.5
    },
    "right_hand": {
      "clef": "G",
      "proba_rest": 0.5,
      "proba_note": 0.5,
      "proba_interv": 0.5,
      "proba_chord": 0.5
    }
  },
  "global_gen_params": {
    "duration": 6,
    "measures": 6,
    "meter": "4/4",
    "clef_G": true,
    "clef_F": true,
    "clef_OR": false,
    "tempo": 100,
    "sound": true,
    "timed": true
  },
  "measure_types_selected": {
    "simple_notes_right_hand": false,
    "simple_notes_left_hand": false,
    "simple_notes_both_hands": true,
    "chords_first_beat_lh_and_notes_rh": false,
    "intervals": false
  },
  "rhythm_params": {
    "right_hand": [
      {
        "name": "whole",
        "duration": 3840,
        "proba": 0
      },
      {
        "name": "half half",
        "duration": 3840,
        "proba": 0
      },
      {
        "name": "quarter quarter quarter quarter",
        "duration": 3840,
        "proba": 0
      },
      {
        "name": "quarter quarter half",
        "duration": 3840,
        "proba": 0
      },
      {
        "name": "quarter half quarter",
        "duration": 3840,
        "proba": 0
      },
      {
        "name": "half quarter quarter",
        "duration": 3840,
        "proba": 0
      },
      {
        "name": "quarter d_half",
        "duration": 3840,
        "proba": 0
      },
      {
        "name": "d_half quarter",
        "duration": 3840,
        "proba": 0
      },
      {
        "name": "half",
        "duration": 1920,
        "proba": 8
      },
      {
        "name": "quarter quarter",
        "duration": 1920,
        "proba": 0
      },
      {
        "name": "eights eights eights eights",
        "duration": 1920,
        "proba": 3
      },
      {
        "name": "eights eights quarter",
        "duration": 1920,
        "proba": 13
      },
      {
        "name": "eights quarter eights",
        "duration": 1920,
        "proba": 0
      },
      {
        "name": "quarter eights eights",
        "duration": 1920,
        "proba": 0
      },
      {
        "name": "eights d_quarter",
        "duration": 1920,
        "proba": 0
      },
      {
        "name": "d_quarter eights",
        "duration": 1920,
        "proba": 0
      },
      {
        "name": "quarter",
        "duration": 960,
        "proba": 14
      },
      {
        "name": "eights eights",
        "duration": 960,
        "proba": 3
      },
      {
        "name": "sixteenth sixteenth sixteenth sixteenth",
        "duration": 960,
        "proba": 0
      },
      {
        "name": "sixteenth sixteenth eights",
        "duration": 960,
        "proba": 0
      },
      {
        "name": "sixteenth eights sixteenth",
        "duration": 960,
        "proba": 0
      },
      {
        "name": "eights sixteenth sixteenth",
        "duration": 960,
        "proba": 0
      },
      {
        "name": "sixteenth d_eights",
        "duration": 960,
        "proba": 0
      },
      {
        "name": "d_eights sixteenth",
        "duration": 960,
        "proba": 0
      }
    ],
    "left_hand": [
      {
        "name": "whole",
        "duration": 3840,
        "proba": 0
      },
      {
        "name": "half half",
        "duration": 3840,
        "proba": 0
      },
      {
        "name": "quarter quarter quarter quarter",
        "duration": 3840,
        "proba": 0
      },
      {
        "name": "quarter quarter half",
        "duration": 3840,
        "proba": 0
      },
      {
        "name": "quarter half quarter",
        "duration": 3840,
        "proba": 0
      },
      {
        "name": "half quarter quarter",
        "duration": 3840,
        "proba": 0
      },
      {
        "name": "quarter d_half",
        "duration": 3840,
        "proba": 0
      },
      {
        "name": "d_half quarter",
        "duration": 3840,
        "proba": 0
      },
      {
        "name": "half",
        "duration": 1920,
        "proba": 0
      },
      {
        "name": "quarter quarter",
        "duration": 1920,
        "proba": 0
      },
      {
        "name": "eights eights eights eights",
        "duration": 1920,
        "proba": 0
      },
      {
        "name": "eights eights quarter",
        "duration": 1920,
        "proba": 0
      },
      {
        "name": "eights quarter eights",
        "duration": 1920,
        "proba": 0
      },
      {
        "name": "quarter eights eights",
        "duration": 1920,
        "proba": 0
      },
      {
        "name": "eights d_quarter",
        "duration": 1920,
        "proba": 0
      },
      {
        "name": "d_quarter eights",
        "duration": 1920,
        "proba": 0
      },
      {
        "name": "quarter",
        "duration": 960,
        "proba": 0
      },
      {
        "name": "eights eights",
        "duration": 960,
        "proba": 0
      },
      {
        "name": "sixteenth sixteenth sixteenth sixteenth",
        "duration": 960,
        "proba": 0
      },
      {
        "name": "sixteenth sixteenth eights",
        "duration": 960,
        "proba": 0
      },
      {
        "name": "sixteenth eights sixteenth",
        "duration": 960,
        "proba": 0
      },
      {
        "name": "eights sixteenth sixteenth",
        "duration": 960,
        "proba": 0
      },
      {
        "name": "sixteenth d_eights",
        "duration": 960,
        "proba": 0
      },
      {
        "name": "d_eights sixteenth",
        "duration": 960,
        "proba": 0
      }
    ]
  },
  "tonalities_selected": {
    "C": true,
    "D": false,
    "E": false,
    "F": false,
    "G": false,
    "Bb": false
  },
  "modes_selected": {
    "major": true,
    "h_minor": false,
    "n_minor": false,
    "m_minor": false
  },
  "exercise_types_selected": {
    "reading_untimed": false,
    "reading_timed": true,
    "hearing": false
  },
  "chords_gen_params": {
    "inversions": {
      "_one": true,
      "_two": false,
      "_three": false,
      "_four": false
    },
    "chord_types_major": {
      "major": true,
      "minor": true,
      "dominant": true,
      "minor7": true,
      "maj7": true,
      "dim": true,
      "hdim": true
    },
    "chord_types_h_minor": {
      "major": true,
      "minor": true,
      "dominant": true,
      "minor7": true,
      "maj7": true,
      "dim": true,
      "dim7": true,
      "hdim": true,
      "aug": true,
      "mMaj7": true,
      "augMaj7": true
    },
    "chord_types_n_minor": {
      "major": true,
      "minor7": true,
      "dominant": true,
      "minor": true,
      "maj7": true,
      "dim": true
    },
    "chord_types_m_minor": {
      "dim": true,
      "major": true,
      "minor": true,
      "aug": true,
      "mMaj7": true,
      "minor7": true,
      "augMaj7": true,
      "dominant": true,
      "hdim": true
    }
  },
  "notes_gen_params": {
    "arpeggios": false,
    "one_by_one": false
  }
}