<svg width="357" height="357" version="1.1" viewBox="0 0 357 357" xmlns="http://www.w3.org/2000/svg">
		<g transform="translate(-1.95 -173)">
				<circle cx="184" cy="354" r="152" style="fill:none;opacity:.522;stroke-width:.619;stroke:#000"/>
				<g id="major">
						<text x="176.99556" y="188.36215" style="fill:#000000;font-family:Lato;font-feature-settings:normal;font-size:21.3px;font-variant-caps:normal;font-variant-ligatures:normal;font-variant-numeric:normal;letter-spacing:0px;line-height:0%;stroke-width:1px;word-spacing:0px" xml:space="preserve"><tspan x="176.99556" y="188.36215" style="font-family:Lato;font-feature-settings:normal;font-size:21.3px;font-variant-caps:normal;font-variant-ligatures:normal;font-variant-numeric:normal;line-height:1.25">C</tspan></text>
						<text x="260" y="210.36215" style="fill:#000000;font-family:Lato;font-feature-settings:normal;font-size:21.3px;font-variant-caps:normal;font-variant-ligatures:normal;font-variant-numeric:normal;letter-spacing:0px;line-height:0%;stroke-width:1px;word-spacing:0px" xml:space="preserve"><tspan x="260" y="210.36215" style="font-family:Lato;font-feature-settings:normal;font-size:21.3px;font-variant-caps:normal;font-variant-ligatures:normal;font-variant-numeric:normal;line-height:1.25">G</tspan></text>
						<text x="325" y="270.36218" style="fill:#000000;font-family:Lato;font-feature-settings:normal;font-size:21.3px;font-variant-caps:normal;font-variant-ligatures:normal;font-variant-numeric:normal;letter-spacing:0px;line-height:0%;stroke-width:1px;word-spacing:0px" xml:space="preserve"><tspan x="325" y="270.36218" style="font-family:Lato;font-feature-settings:normal;font-size:21.3px;font-variant-caps:normal;font-variant-ligatures:normal;font-variant-numeric:normal;line-height:1.25">D</tspan></text>
						<text x="345" y="355.36218" style="fill:#000000;font-family:Lato;font-feature-settings:normal;font-size:21.3px;font-variant-caps:normal;font-variant-ligatures:normal;font-variant-numeric:normal;letter-spacing:0px;line-height:0%;stroke-width:1px;word-spacing:0px" xml:space="preserve"><tspan x="345" y="355.36218" style="font-family:Lato;font-feature-settings:normal;font-size:21.3px;font-variant-caps:normal;font-variant-ligatures:normal;font-variant-numeric:normal;line-height:1.25">A</tspan></text>
						<text x="330" y="442.36218" style="fill:#000000;font-family:Lato;font-feature-settings:normal;font-size:21.3px;font-variant-caps:normal;font-variant-ligatures:normal;font-variant-numeric:normal;letter-spacing:0px;line-height:0%;stroke-width:1px;word-spacing:0px" xml:space="preserve"><tspan x="330" y="442.36218" style="font-family:Lato;font-feature-settings:normal;font-size:21.3px;font-variant-caps:normal;font-variant-ligatures:normal;font-variant-numeric:normal;line-height:1.25">E</tspan></text>
						<text x="265" y="508.36218" style="fill:#000000;font-family:Lato;font-feature-settings:normal;font-size:21.3px;font-variant-caps:normal;font-variant-ligatures:normal;font-variant-numeric:normal;letter-spacing:0px;line-height:0%;stroke-width:1px;word-spacing:0px" xml:space="preserve"><tspan x="265" y="508.36218" style="font-family:Lato;font-feature-settings:normal;font-size:21.3px;font-variant-caps:normal;font-variant-ligatures:normal;font-variant-numeric:normal;line-height:1.25">B</tspan></text>
						<text x="170" y="530.36218" style="fill:#000000;font-family:Lato;font-feature-settings:normal;font-size:21.3px;font-variant-caps:normal;font-variant-ligatures:normal;font-variant-numeric:normal;letter-spacing:0px;line-height:0%;stroke-width:1px;word-spacing:0px" xml:space="preserve"><tspan x="170" y="530.36218" style="font-family:Lato;font-feature-settings:normal;font-size:21.3px;font-variant-caps:normal;font-variant-ligatures:normal;font-variant-numeric:normal;line-height:1.25">F#</tspan></text>
						<text x="90" y="503.36218" style="fill:#000000;font-family:Lato;font-feature-settings:normal;font-size:21.3px;font-variant-caps:normal;font-variant-ligatures:normal;font-variant-numeric:normal;letter-spacing:0px;line-height:0%;stroke-width:1px;word-spacing:0px" xml:space="preserve"><tspan x="90" y="503.36218" style="font-family:Lato;font-feature-settings:normal;font-size:21.3px;font-variant-caps:normal;font-variant-ligatures:normal;font-variant-numeric:normal;line-height:1.25">Db</tspan></text>
						<text x="23" y="437.36218" style="fill:#000000;font-family:Lato;font-feature-settings:normal;font-size:21.3px;font-variant-caps:normal;font-variant-ligatures:normal;font-variant-numeric:normal;letter-spacing:0px;line-height:0%;stroke-width:1px;word-spacing:0px" xml:space="preserve"><tspan x="23" y="437.36218" style="font-family:Lato;font-feature-settings:normal;font-size:21.3px;font-variant-caps:normal;font-variant-ligatures:normal;font-variant-numeric:normal;line-height:1.25">Ab</tspan></text>
						<text y="355.36218" style="fill:#000000;font-family:Lato;font-feature-settings:normal;font-size:21.3px;font-variant-caps:normal;font-variant-ligatures:normal;font-variant-numeric:normal;letter-spacing:0px;line-height:0%;stroke-width:1px;word-spacing:0px" xml:space="preserve"><tspan x="0" y="355.36218" style="font-family:Lato;font-feature-settings:normal;font-size:21.3px;font-variant-caps:normal;font-variant-ligatures:normal;font-variant-numeric:normal;line-height:1.25">Eb</tspan></text>
						<text x="25" y="273.36218" style="fill:#000000;font-family:Lato;font-feature-settings:normal;font-size:21.3px;font-variant-caps:normal;font-variant-ligatures:normal;font-variant-numeric:normal;letter-spacing:0px;line-height:0%;stroke-width:1px;word-spacing:0px" xml:space="preserve"><tspan x="25" y="273.36218" style="font-family:Lato;font-feature-settings:normal;font-size:21.3px;font-variant-caps:normal;font-variant-ligatures:normal;font-variant-numeric:normal;line-height:1.25">Bb</tspan></text>
						<text x="90" y="209.36215" style="fill:#000000;font-family:Lato;font-feature-settings:normal;font-size:21.3px;font-variant-caps:normal;font-variant-ligatures:normal;font-variant-numeric:normal;letter-spacing:0px;line-height:0%;stroke-width:1px;word-spacing:0px" xml:space="preserve"><tspan x="90" y="209.36215" style="font-family:Lato;font-feature-settings:normal;font-size:21.3px;font-variant-caps:normal;font-variant-ligatures:normal;font-variant-numeric:normal;line-height:1.25">F</tspan></text>
				</g>
				<g id="minor">
						<text x="173.41632" y="220.34468" style="fill:#000000;font-family:Lato;font-feature-settings:normal;font-size:15.5px;font-variant-caps:normal;font-variant-ligatures:normal;font-variant-numeric:normal;letter-spacing:0px;line-height:0%;stroke-width:.772px;word-spacing:0px" xml:space="preserve"><tspan x="173.41632" y="220.34468" style="font-family:Lato;font-feature-settings:normal;font-size:15.5px;font-variant-caps:normal;font-variant-ligatures:normal;font-variant-numeric:normal;line-height:1.25;stroke-width:.772px">Am</tspan></text>
						<text x="238.66835" y="238.64746" style="fill:#000000;font-family:Lato;font-feature-settings:normal;font-size:15.5px;font-variant-caps:normal;font-variant-ligatures:normal;font-variant-numeric:normal;letter-spacing:0px;line-height:0%;stroke-width:.772px;word-spacing:0px" xml:space="preserve"><tspan x="238.66835" y="238.64746" style="font-family:Lato;font-feature-settings:normal;font-size:15.5px;font-variant-caps:normal;font-variant-ligatures:normal;font-variant-numeric:normal;line-height:1.25;stroke-width:.772px">Em</tspan></text>
						<text x="286.17484" y="282.56714" style="fill:#000000;font-family:Lato;font-feature-settings:normal;font-size:15.5px;font-variant-caps:normal;font-variant-ligatures:normal;font-variant-numeric:normal;letter-spacing:0px;line-height:0%;stroke-width:.772px;word-spacing:0px" xml:space="preserve"><tspan x="286.17484" y="282.56714" style="font-family:Lato;font-feature-settings:normal;font-size:15.5px;font-variant-caps:normal;font-variant-ligatures:normal;font-variant-numeric:normal;line-height:1.25;stroke-width:.772px">Bm</tspan></text>
						<text x="298.58072" y="353.58005" style="fill:#000000;font-family:Lato;font-feature-settings:normal;font-size:15.5px;font-variant-caps:normal;font-variant-ligatures:normal;font-variant-numeric:normal;letter-spacing:0px;line-height:0%;stroke-width:.772px;word-spacing:0px" xml:space="preserve"><tspan x="298.58072" y="353.58005" style="font-family:Lato;font-feature-settings:normal;font-size:15.5px;font-variant-caps:normal;font-variant-ligatures:normal;font-variant-numeric:normal;line-height:1.25;stroke-width:.772px">F#m</tspan></text>
						<text x="280.24832" y="425.80945" style="fill:#000000;font-family:Lato;font-feature-settings:normal;font-size:15.5px;font-variant-caps:normal;font-variant-ligatures:normal;font-variant-numeric:normal;letter-spacing:0px;line-height:0%;stroke-width:.772px;word-spacing:0px" xml:space="preserve"><tspan x="280.24832" y="425.80945" style="font-family:Lato;font-feature-settings:normal;font-size:15.5px;font-variant-caps:normal;font-variant-ligatures:normal;font-variant-numeric:normal;line-height:1.25;stroke-width:.772px">C#m</tspan></text>
						<text x="236.19267" y="473.47498" style="fill:#000000;font-family:Lato;font-feature-settings:normal;font-size:15.5px;font-variant-caps:normal;font-variant-ligatures:normal;font-variant-numeric:normal;letter-spacing:0px;line-height:0%;stroke-width:.772px;word-spacing:0px" xml:space="preserve"><tspan x="236.19267" y="473.47498" style="font-family:Lato;font-feature-settings:normal;font-size:15.5px;font-variant-caps:normal;font-variant-ligatures:normal;font-variant-numeric:normal;line-height:1.25;stroke-width:.772px">G#m</tspan></text>
						<text x="165.39803" y="497.32037" style="fill:#000000;font-family:Lato;font-feature-settings:normal;font-size:15.5px;font-variant-caps:normal;font-variant-ligatures:normal;font-variant-numeric:normal;letter-spacing:0px;line-height:0%;stroke-width:.772px;word-spacing:0px" xml:space="preserve"><tspan x="165.39803" y="497.32037" style="font-family:Lato;font-feature-settings:normal;font-size:15.5px;font-variant-caps:normal;font-variant-ligatures:normal;font-variant-numeric:normal;line-height:1.25;stroke-width:.772px">Ebm</tspan></text>
						<text x="108.86298" y="476.49033" style="fill:#000000;font-family:Lato;font-feature-settings:normal;font-size:15.5px;font-variant-caps:normal;font-variant-ligatures:normal;font-variant-numeric:normal;letter-spacing:0px;line-height:0%;stroke-width:.772px;word-spacing:0px" xml:space="preserve"><tspan x="108.86298" y="476.49033" style="font-family:Lato;font-feature-settings:normal;font-size:15.5px;font-variant-caps:normal;font-variant-ligatures:normal;font-variant-numeric:normal;line-height:1.25;stroke-width:.772px">Bbm</tspan></text>
						<text x="55.601101" y="420.13083" style="fill:#000000;font-family:Lato;font-feature-settings:normal;font-size:15.5px;font-variant-caps:normal;font-variant-ligatures:normal;font-variant-numeric:normal;letter-spacing:0px;line-height:0%;stroke-width:.772px;word-spacing:0px" xml:space="preserve"><tspan x="55.601101" y="420.13083" style="font-family:Lato;font-feature-settings:normal;font-size:15.5px;font-variant-caps:normal;font-variant-ligatures:normal;font-variant-numeric:normal;line-height:1.25;stroke-width:.772px">Fm</tspan></text>
						<text x="39.585354" y="352.73105" style="fill:#000000;font-family:Lato;font-feature-settings:normal;font-size:15.5px;font-variant-caps:normal;font-variant-ligatures:normal;font-variant-numeric:normal;letter-spacing:0px;line-height:0%;stroke-width:.772px;word-spacing:0px" xml:space="preserve"><tspan x="39.585354" y="352.73105" style="font-family:Lato;font-feature-settings:normal;font-size:15.5px;font-variant-caps:normal;font-variant-ligatures:normal;font-variant-numeric:normal;line-height:1.25;stroke-width:.772px">Cm</tspan></text>
						<text x="57.500919" y="285.64285" style="fill:#000000;font-family:Lato;font-feature-settings:normal;font-size:15.5px;font-variant-caps:normal;font-variant-ligatures:normal;font-variant-numeric:normal;letter-spacing:0px;line-height:0%;stroke-width:.772px;word-spacing:0px" xml:space="preserve"><tspan x="57.500919" y="285.64285" style="font-family:Lato;font-feature-settings:normal;font-size:15.5px;font-variant-caps:normal;font-variant-ligatures:normal;font-variant-numeric:normal;line-height:1.25;stroke-width:.772px">Gm</tspan></text>
						<text x="109.00448" y="234.70085" style="fill:#000000;font-family:Lato;font-feature-settings:normal;font-size:15.5px;font-variant-caps:normal;font-variant-ligatures:normal;font-variant-numeric:normal;letter-spacing:0px;line-height:0%;stroke-width:.772px;word-spacing:0px" xml:space="preserve"><tspan x="109.00448" y="234.70085" style="font-family:Lato;font-feature-settings:normal;font-size:15.5px;font-variant-caps:normal;font-variant-ligatures:normal;font-variant-numeric:normal;line-height:1.25;stroke-width:.772px">Dm</tspan></text>
				</g>
				<g id="alter">
						<text x="125.66895" y="252.15071" style="fill:#000000;font-family:Lato;font-feature-settings:normal;font-size:10.2px;font-variant-caps:normal;font-variant-ligatures:normal;font-variant-numeric:normal;letter-spacing:0px;line-height:0%;stroke-width:.479px;word-spacing:0px" xml:space="preserve"><tspan x="125.66895" y="252.15071" style="font-family:Lato;font-feature-settings:normal;font-size:10.2px;font-variant-caps:normal;font-variant-ligatures:normal;font-variant-numeric:normal;line-height:1.25;stroke-width:.479px">b</tspan></text>
						<text x="229.54335" y="251.36159" style="fill:#000000;font-family:Lato;font-feature-settings:normal;font-size:10.2px;font-variant-caps:normal;font-variant-ligatures:normal;font-variant-numeric:normal;letter-spacing:0px;line-height:0%;stroke-width:.479px;word-spacing:0px" xml:space="preserve"><tspan x="229.54335" y="251.36159" style="font-family:Lato;font-feature-settings:normal;font-size:10.2px;font-variant-caps:normal;font-variant-ligatures:normal;font-variant-numeric:normal;line-height:1.25;stroke-width:.479px">#</tspan></text>
						<text x="79.568993" y="299.22482" style="fill:#000000;font-family:Lato;font-feature-settings:normal;font-size:10.2px;font-variant-caps:normal;font-variant-ligatures:normal;font-variant-numeric:normal;letter-spacing:0px;line-height:0%;stroke-width:.479px;word-spacing:0px" xml:space="preserve"><tspan x="79.568993" y="299.22482" style="font-family:Lato;font-feature-settings:normal;font-size:10.2px;font-variant-caps:normal;font-variant-ligatures:normal;font-variant-numeric:normal;line-height:1.25;stroke-width:.479px">2 b </tspan></text>
						<text x="73.265617" y="344.16306" style="fill:#000000;font-family:Lato;font-feature-settings:normal;font-size:10.2px;font-variant-caps:normal;font-variant-ligatures:normal;font-variant-numeric:normal;letter-spacing:0px;line-height:0%;stroke-width:.479px;word-spacing:0px" xml:space="preserve"><tspan x="73.265617" y="344.16306" style="font-family:Lato;font-feature-settings:normal;font-size:10.2px;font-variant-caps:normal;font-variant-ligatures:normal;font-variant-numeric:normal;line-height:1.25;stroke-width:.479px">3 b </tspan></text>
						<text x="83.656746" y="408.06149" style="fill:#000000;font-family:Lato;font-feature-settings:normal;font-size:10.2px;font-variant-caps:normal;font-variant-ligatures:normal;font-variant-numeric:normal;letter-spacing:0px;line-height:0%;stroke-width:.479px;word-spacing:0px" xml:space="preserve"><tspan x="83.656746" y="408.06149" style="font-family:Lato;font-feature-settings:normal;font-size:10.2px;font-variant-caps:normal;font-variant-ligatures:normal;font-variant-numeric:normal;line-height:1.25;stroke-width:.479px">4 b </tspan></text>
						<text x="127.36554" y="454.85345" style="fill:#000000;font-family:Lato;font-feature-settings:normal;font-size:10.2px;font-variant-caps:normal;font-variant-ligatures:normal;font-variant-numeric:normal;letter-spacing:0px;line-height:0%;stroke-width:.479px;word-spacing:0px" xml:space="preserve"><tspan x="127.36554" y="454.85345" style="font-family:Lato;font-feature-settings:normal;font-size:10.2px;font-variant-caps:normal;font-variant-ligatures:normal;font-variant-numeric:normal;line-height:1.25;stroke-width:.479px">5 b </tspan></text>
						<text x="266.18771" y="295.59937" style="fill:#000000;font-family:Lato;font-feature-settings:normal;font-size:10.2px;font-variant-caps:normal;font-variant-ligatures:normal;font-variant-numeric:normal;letter-spacing:0px;line-height:0%;stroke-width:.479px;word-spacing:0px" xml:space="preserve"><tspan x="266.18771" y="295.59937" style="font-family:Lato;font-feature-settings:normal;font-size:10.2px;font-variant-caps:normal;font-variant-ligatures:normal;font-variant-numeric:normal;line-height:1.25;stroke-width:.479px">2 #</tspan></text>
						<text x="279.86569" y="340.06415" style="fill:#000000;font-family:Lato;font-feature-settings:normal;font-size:10.2px;font-variant-caps:normal;font-variant-ligatures:normal;font-variant-numeric:normal;letter-spacing:0px;line-height:0%;stroke-width:.479px;word-spacing:0px" xml:space="preserve"><tspan x="279.86569" y="340.06415" style="font-family:Lato;font-feature-settings:normal;font-size:10.2px;font-variant-caps:normal;font-variant-ligatures:normal;font-variant-numeric:normal;line-height:1.25;stroke-width:.479px">3 # </tspan></text>
						<text x="271.71313" y="406.83527" style="fill:#000000;font-family:Lato;font-feature-settings:normal;font-size:10.2px;font-variant-caps:normal;font-variant-ligatures:normal;font-variant-numeric:normal;letter-spacing:0px;line-height:0%;stroke-width:.479px;word-spacing:0px" xml:space="preserve"><tspan x="271.71313" y="406.83527" style="font-family:Lato;font-feature-settings:normal;font-size:10.2px;font-variant-caps:normal;font-variant-ligatures:normal;font-variant-numeric:normal;line-height:1.25;stroke-width:.479px">4 # </tspan></text>
						<text x="236.70181" y="453.86963" style="fill:#000000;font-family:Lato;font-feature-settings:normal;font-size:10.2px;font-variant-caps:normal;font-variant-ligatures:normal;font-variant-numeric:normal;letter-spacing:0px;line-height:0%;stroke-width:.479px;word-spacing:0px" xml:space="preserve"><tspan x="236.70181" y="453.86963" style="font-family:Lato;font-feature-settings:normal;font-size:10.2px;font-variant-caps:normal;font-variant-ligatures:normal;font-variant-numeric:normal;line-height:1.25;stroke-width:.479px">5 # </tspan></text>
						<text x="174.23462" y="478.00009" style="fill:#000000;font-family:Lato;font-feature-settings:normal;font-size:10.2px;font-variant-caps:normal;font-variant-ligatures:normal;font-variant-numeric:normal;letter-spacing:0px;line-height:0%;stroke-width:.479px;word-spacing:0px" xml:space="preserve"><tspan x="174.23462" y="478.00009" style="font-family:Lato;font-feature-settings:normal;font-size:10.2px;font-variant-caps:normal;font-variant-ligatures:normal;font-variant-numeric:normal;line-height:1.25;stroke-width:.479px">6 # </tspan></text>
				</g>
		</g>
</svg>
