{
		"#": ["c", "c#", "d", "d#", "e", "f", "f#", "g", "g#", "a", "a#", "b"],
		"b": ["c", "db", "d", "eb", "e", "f", "gb", "g", "ab", "a", "bb", "b"],

		"isSharpTonality":{
			"#":["g","d","a","e","b","f#","c#"],
			"b":["c","f","bb","eb","ab","db","gb","cb"]
		}
	}